C:\PROYECTOS AUTOMATIZACION\Selenium-POM-TestNG-Maven\src\main\java\com\crm\qa\utilities\LoggerClass.java
C:\PROYECTOS AUTOMATIZACION\Selenium-POM-TestNG-Maven\src\main\java\com\crm\qa\utilities\RetryAnalyzer.java
C:\PROYECTOS AUTOMATIZACION\Selenium-POM-TestNG-Maven\src\main\java\com\crm\qa\reports\ExtentReporterNG.java
C:\PROYECTOS AUTOMATIZACION\Selenium-POM-TestNG-Maven\src\main\java\com\crm\qa\utilities\WebDriverListener.java
C:\PROYECTOS AUTOMATIZACION\Selenium-POM-TestNG-Maven\src\main\java\com\crm\qa\utilities\AnnotationTransformer.java
C:\PROYECTOS AUTOMATIZACION\Selenium-POM-TestNG-Maven\src\main\java\com\crm\qa\pages\SearchHotelPage.java
C:\PROYECTOS AUTOMATIZACION\Selenium-POM-TestNG-Maven\src\main\java\com\crm\qa\utilities\TestListner.java
C:\PROYECTOS AUTOMATIZACION\Selenium-POM-TestNG-Maven\src\main\java\com\crm\qa\utilities\SeleniumActions.java
C:\PROYECTOS AUTOMATIZACION\Selenium-POM-TestNG-Maven\src\main\java\com\crm\qa\pages\FlightResultPage.java
C:\PROYECTOS AUTOMATIZACION\Selenium-POM-TestNG-Maven\src\main\java\com\crm\qa\base\TestBase.java
C:\PROYECTOS AUTOMATIZACION\Selenium-POM-TestNG-Maven\src\main\java\com\crm\qa\testdata\ExcelDataProvider.java
C:\PROYECTOS AUTOMATIZACION\Selenium-POM-TestNG-Maven\src\main\java\com\crm\qa\utilities\TestUtils.java
C:\PROYECTOS AUTOMATIZACION\Selenium-POM-TestNG-Maven\src\main\java\com\crm\qa\pages\SearchFlightsPage.java
C:\PROYECTOS AUTOMATIZACION\Selenium-POM-TestNG-Maven\src\main\java\com\crm\qa\pages\HomePage.java
